name="Timeline: No AE and DIP Costs"
tags={
	"Gameplay"
	"Fixes"
}
picture="timeline-no-ae.png"
supported_version="1.30.*.*"
path="C:/Users/Alexa/Documents/Paradox Interactive/Europa Universalis IV/mod/timeline-no-ae"
remote_file_id="571085977"